<svg 
 xmlns="http://www.w3.org/2000/svg"
 xmlns:xlink="http://www.w3.org/1999/xlink"
 width="57px" height="57px">
<path fill-rule="evenodd"  fill="rgb(0, 0, 0)"
 d="M28.499,0.004 C12.761,0.004 0.004,12.761 0.004,28.499 C0.004,44.237 12.761,56.994 28.499,56.994 C44.237,56.994 56.994,44.235 56.994,28.499 C56.994,12.763 44.237,0.004 28.499,0.004 ZM28.499,53.432 C14.729,53.432 3.566,42.269 3.566,28.499 C3.566,14.729 14.729,3.566 28.499,3.566 C42.269,3.566 53.432,14.729 53.432,28.499 C53.432,42.269 42.269,53.432 28.499,53.432 ZM39.184,26.718 L30.280,26.718 L30.280,17.814 C30.280,16.830 29.483,16.032 28.499,16.032 C27.516,16.032 26.718,16.830 26.718,17.814 L26.718,26.718 L17.814,26.718 C16.830,26.718 16.033,27.517 16.033,28.499 C16.033,29.482 16.830,30.280 17.814,30.280 L26.718,30.280 L26.718,39.184 C26.718,40.168 27.516,40.966 28.499,40.966 C29.483,40.966 30.280,40.168 30.280,39.184 L30.280,30.280 L39.184,30.280 C40.168,30.280 40.965,29.482 40.965,28.499 C40.965,27.517 40.168,26.718 39.184,26.718 Z"/>
</svg>