{
  "name": {
    "title": "Name",
    "placeholder": "Enter"
  },
  "country": {
    "title": "Country",
    "data": [
      {
        "displayName": "Example Country 1"
      },
      {
        "displayName": "Example Country 1"
      },
      {
        "displayName": "Example Country 1"
      }
    ]
  },
  "prefix": {
    "title": "Location Prefix",
    "placeholder": "CH001"
  },
  "region": {
    "title": "Region",
    "data": [
      {
        "displayName": "Example Region 1"
      },
      {
        "displayName": "Example Region 1"
      },
      {
        "displayName": "Example Region 1"
      }
    ]
  },
  "city": {
    "title": "City",
    "data": [
      {
        "displayName": "Example City 1"
      },
      {
        "displayName": "Example City 1"
      },
      {
        "displayName": "Example City 1"
      }
    ]
  },
  "zip": {
    "title": "ZIP",
    "placeholder": "Enter ZIP"
  },
  "street": {
    "title": "Street",
    "placeholder": "Enter street"
  },
  "streetNumber": {
    "title": "Street Number",
    "placeholder": "Enter street"
  },
  "subnets": []
}