{
  "labels": ["MAR", "APR", "MAY"],
  "datasets": [{
    "label": "Managed Services",
    "data": [0, 10, 0]
  }, {
    "label": "Operations",
    "data": [10, 0, 10]
  }, {
    "label": "Licenses",
    "data": [0, 10, 1]
  }, {
    "label": "Services",
    "data": [5, 5, 6]
  }, {
    "label": "Infrastructure Providers",
    "data": [5, 5, 5]
  }],
  "title": "Billings & Reporting"
}