{
  "labels": ["1", "2", "3", "4", "5", "6", "7", "8", "9", "10", "11", "12", "13", "14", "15", "16", "17", "18", "19", "20", "21", "22", "23", "24", "25", "26", "27", "28", "29", "30", "31"],
  "datasets": [{
    "label": "Managed Services",
    "data": [0, 10, 0, 10, 0, 10, 0, 10, 0, 10, 0, 10, 0, 10, 0, 10, 0, 10, 0, 10, 0, 10, 0, 10, 0, 10, 0, 10, 0, 10, 0]
  }, {
    "label": "Operations",
    "data": [10, 0, 10, 0, 10, 0, 10, 0, 10, 0, 10, 0, 10, 0, 10, 0, 10, 0, 10, 0, 10, 0, 10, 0, 10, 0, 10, 0, 10, 0, 10]
  }, {
    "label": "Licenses",
    "data": [0, 10, 1, 9, 2, 8, 3, 7, 4, 6, 5, 5, 0, 10, 1, 9, 2, 8, 3, 7, 4, 6, 5, 5, 0, 10, 1, 9, 2, 8, 5]
  }, {
    "label": "Services",
    "data": [5, 5, 6, 4, 7, 3, 8, 2, 9, 1, 10, 1, 5, 5, 6, 4, 7, 3, 8, 2, 9, 1, 10, 1, 5, 5, 6, 4, 7, 3, 5]
  }, {
    "label": "Infrastructure Providers",
    "data": [5, 5, 5, 5, 5, 5, 5, 5, 5, 5, 5, 5, 5, 5, 5, 5, 5, 5, 5, 5, 5, 5, 5, 5, 5, 5, 5, 5, 5, 5, 5]
  }],
  "title": "Billings & Reporting"
}