[
  {
    "title": "Dashboard",
    "state": "app.dashboard",
    "iconClass": "dashboard"
  }, {
    "title": "Deployment & Configuration",
    "state": "app.depconf",
    "iconClass": "dc",
    "hasAngleIcon": true
  }, {
    "title": "Operations",
    "state": "app.operations",
    "iconClass": "operations",
    "hasAngleIcon": true
  }, {
    "title": "Organization & Settings",
    "state": "app.orgset",
    "iconClass": "organization",
    "hasAngleIcon": true
  }, {
    "title": "Users & Permissions",
    "state": "app.users",
    "iconClass": "users",
    "hasAngleIcon": true
  }, {
    "title": "Software & Licenses",
    "state": "app.softlic",
    "iconClass": "licences",
    "hasAngleIcon": true
  }, {
    "title": "Billing",
    "state": "app.billing",
    "iconClass": "billing",
    "hasAngleIcon": true
  }, {
    "title": "Activities & History",
    "state": "app.acthis",
    "iconClass": "shedule",
    "hasAngleIcon": true
  }, {
    "title": "Settings",
    "state": "app.settings",
    "iconClass": "Settings-new",
    "hasAngleIcon": true
  }
]