[
  {
    "Id": 0,
    "ProductName": "Dynamics 365 Enterprise Edition Plan 2 - Operations Additional Database Storage",
    "ProductId": "b26aa30c-1de1-4f43-ac81-910442cf5335",
    "TypeOfBusiness": "Corporate General",
    "SubscriptionType": "1 month",
    "Price": 200,
    "ERPPrice": 220,
    "FinalPrice": 285,
    "Public": false,
    "ResellingByOthers": true,
    "DiscountForReseller": 0,
    "Availability": ["All"],
    "ForReselling": false
  },
  {
    "Id": 1,
    "ProductName": "Azure Active Directory Basic",
    "ProductId": "84a03d81-6b37-4d66-8d4a-faea24541538",
    "TypeOfBusiness": "Government",
    "SubscriptionType": "1 month",
    "Price": 300,
    "ERPPrice": 320,
    "FinalPrice": 385,
    "Public": true,
    "ResellingByOthers": true,
    "DiscountForReseller": 0,
    "Availability": ["Russia"]
  },
  {
    "Id": 2,
    "ProductName": "Dynamics 365 Enterprise Edition Plan 2 - Operations Additional Database Storage",
    "ProductId": "b26aa30c-1de1-4f43-ac81-910442cf5335",
    "TypeOfBusiness": "Corporate General",
    "SubscriptionType": "1 month",
    "Price": 100,
    "ERPPrice": 120,
    "FinalPrice": 185,
    "Public": true,
    "ResellingByOthers": true,
    "DiscountForReseller": 5,
    "Availability": ["Pakistan"]
  }
]