[
  {
    "id": 0,
    "name": "Azure Active Directory 1",
    "data": [
      "No minimums or commitments",
      "Competitive Pricing",
      "Pay only for what you use",
      "Cancel anytime"
    ],
    "price": 0,
    "suffix": "to start",
    "detailsReq": "sl-azure_azure-active-directory",
    "Currency": "CHF",
    "Reseller": "Nexellent",
    "Category": "Analyzis Server",
    "Subcategory": "Tabular",
    "Unit": "per Hour"
  },{
    "id": 1,
    "name": "Azure Active Directory 2",
    "data": [
      "No minimums or commitments",
      "Competitive Pricing",
      "Pay only for what you use",
      "Cancel anytime"
    ],
    "price": 0,
    "detailsReq": "sl-azure_azure-active-directory"
  },{
    "id": 2,
    "name": "Azure Active Directory 3",
    "data": [
      "No minimums or commitments",
      "Competitive Pricing",
      "Cancel anytime"
    ],
    "price": 200,
    "detailsReq": "sl-azure_azure-active-directory"
  },{
    "id": 3,
    "name": "Azure Active Directory 4",
    "data": [
      "No minimums or commitments"
    ],
    "price": 0,
    "detailsReq": "sl-azure_azure-active-directory"
  }
]