[
  {
    "id": 1,
    "stop": -1,
    "assignment": "Unassigned",
    "status": 100,
    "endDate": "2012-04-23T00:00:00.000Z"
  },{
    "id": 2,
    "stop": -1,
    "assignment": "Unassigned",
    "status": 100,
    "endDate": "2012-04-23T00:00:00.000Z"
  },{
    "id": 3,
    "stop": -1,
    "assignment": "Unassigned",
    "status": 100,
    "endDate": "2012-04-23T00:00:00.000Z"
  },{
    "id": 4,
    "stop": -1,
    "assignment": "Unassigned",
    "status": 100,
    "endDate": "2012-04-23T00:00:00.000Z"
  },{
    "id": 5,
    "stop": -1,
    "assignment": "Dan Brown",
    "status": 9,
    "endDate": "2012-04-23T00:00:00.000Z"
  }
]